title;sku;cat;image;validade;peso_unitario;ncm;qtd_caixa;cla;m3_caixa;peso_caixa;container;lang
PATATA PAJA TRADICIONAL;273;1;cod-273.jpg;6;120G;20052000;26X120G;42,0 X 26,0 X 26,5;0,0289;3,48;CAJA;es
PATATA PAJA TRADICIONAL;274;1;cod-274.jpg;6;250G;20052000;12X250G;31,0 X 20,5 X 16,5;0,0105;3,32;CAJA;es
PATATA ONDULADA TRADICIONAL;275;1;cod-275.jpg;6;40G;20052000;20X40G;56,0 X 30,0 X 14,5;0,0244;1,1;CAJA;es
PURÉ DE PATATA;280;1;cod-280.jpg;12;160G;11052000;24X160G;31,0 X 20,5 X 16,5;0,0105;2,08;CAJA;es
QUESO PARMESANO RALLADO;335;1;cod-335.jpg;6;40G;4062000;100X40G;42,5 X 32,5 X 21,0;0,029;5,81;CAJA;es
TÉ BLANCO EN SOBRES;238;2;cod-238.jpg;24;15G;9022000;24X15G;26,0 X 15,0 X 14,0;0,0055;0,63;CAJA;es
MATE DE MANZANILLA EN SOBRES;191;2;cod-191.jpg;24;10G;9022000;24X10G;26,0 X 15,0 X 14,0;0,0055;0,51;CAJA;es
MATE DE TORONJIL EN SOBRES;194;2;cod-194.jpg;24;10G;9022000;24X10G;26,0 X 15,0 X 14,0;0,0055;0,51;CAJA;es
MATE DE ANÍS  NACIONAL EN SOBRE;193;2;cod-193.jpg;24;15G;9096210;24X15G;26,0 X 15,0 X 14,0;0,0055;0,63;CAJA;es
TÉ ROJO DE FRUTAS EN SOBRES;301;2;cod-301.jpg;24;20G;9022000;24X20G;26,0 X 15,0 X 14,0;0,0055;0,75;CAJA;es
TÉ DE HIBISCOS EN SOBRES;300;2;cod-300.jpg;24;10G;9022000;24X10G;26,0 X 15,0 X 14,0;0,0055;0,51;CAJA;es
TÉ DE MENTA EN SOBRES;190;2;cod-190.jpg;24;10G;9022000;24X10G;26,0 X 15,0 X 14,0;0,0055;0,51;CAJA;es
TÉ DE  MANZANA CON CANELA;192;2;cod-192.jpg;24;20G;9022000;24X20G;26,0 X 15,0 X 14,0;0,0055;0,75;CAJA;es
 TÉ VERDE EN SOBRES;236;2;cod-236.jpg;24;15G;9022000;24X15G;26,0 X 15,0 X 14,0;0,0055;0,63;CAJA;es
TÉ VERDE;172;2;cod-172.jpg;24;80G;9021010;24X80G;40,5 X 18,5 X 30,0;0,0225;2,45;CAJA;es
TÉ TOSTADO EN SOBRE;232;2;cod-232.jpg;24;40G;9030010;24X40G;36,5 X 31,0 X 31,0;0,0351;8,73;CAJA;es
TÉ TOSTADO;265;2;cod-265.jpg;24;100G;9030010;24X100G;26,0 X 25,5 X 25,5;0,0169;3,43;CAJA;es
TÉ TOSTADO;234;2;cod-234.jpg;24;250G;9030010;20X250G;36,5 X 31,0 X 31,0;0,0351;8,73;CAJA;es
TÉ NEGRO SOBRE;272;2;cod-272.jpg;24;18G;9023000;24X18G;26,0 X 15,0 X 14,0;0,0055;0,7;CAJA;es
CACAO DULCE INSTANTANEO;374;3;cod-374.jpg;12;200G;18069000;24X200G;32,0 X 21,0 X 16,0;0,0108;4,97;CAJA;es
 CACAO DULCE INSTANTANEO;129;3;cod-129.jpg;12;400G;18069000;24X400G;45,0 X 32,0 X 15,0;0,0216;10,43;CAJA;es
CACAO DULCE INSTANTANEO;128;3;cod-128.jpg;12;1,01KG;18069000;12X1,01KG;45,0 X 19,0 X 42,0;0,0359;12,72;CAJA;es
CACAO DULCE INSTANTANEO ANIA;75;3;cod-75.jpg;12;400G;18069000;24X400G;33,0 X 40,0 X 8,0;0,0106;9,98;CAJA;es
MAICENA;372;3;cod-372.jpg;24;200G;11081200;24X200G;32,0 X 27,0 X 12,0;0,0104;4,97;CAJA;es
MAICENA ;137;3;cod-137.jpg;24;500G;11081200;24X500G;37,0 X 44,0 X 13,0;0,0212;12,44;CAJA;es
MAICENA;195;3;cod-195.jpg;24;1KG;11081200;12X1KG;37,0 X 49,0 X 13,0;0,0236;12,22;CAJA;es
MAICENA- CAJA;145;3;cod-145.jpg;24;500G;11081200;24X500G;25,0 X 27,0 X 20,0;0,0135;6,65;CAJA;es
MAICENA - CAJA;264;3;cod-264.jpg;24;200G;11081200;24X200G;26,5 X 21,0 X 27,0;0,015;6,02;CAJA;es
AROMA DE PIÑA;121;3;cod-121.jpg;36;30G;33021000;12X30ML;6,5 X 19,5 X 8,0;0,001;0,5;CAJA;es
AROMA DE VAINILLA;120;3;cod-120.jpg;36;30G;33021000;12X30ML;6,5 X 19,5 X 8,0;0,001;0,5;CAJA;es
AROMA DE COCO;122;3;cod-122.jpg;36;30G;33021000;12X30ML;6,5 X 19,5 X 8,0;0,001;0,5;CAJA;es
CHOCOLATE EN POLVO SOLUBLE 40%;119;3;cod-119.jpg;12;200G;18061000;12X200G;11,0 X 16,5 X 17,0;0,0031;3,01;CAJA;es
 CHOCOLATE GRANULADO PARA CONFITERÍA;15;3;cod-15.jpg;12;120G;18063220;40X120G;28,5 X 29,0 X 14,0;0,0116;5,74;CAJA;es
CHOCOLATE GRANULADO PARA CONFITERÍA;92;3;cod-92.jpg;12;70G;18063220;24X70G;21,5 X 17,5 X 16,0  ;0,006;1,95;CAJA;es
CHOCOLATE GRANULADO PARA CONFITERÍA;130;3;cod-130.jpg;12;500G;18063220;12X500G;28,0 X 29,0 X 14,0;0,0114;6,38;CAJA;es
COCO RALLADO ENDULZADO;333;3;cod-333.jpg;12;100G;8011100;24X100G;31,0 X 23,0 X 13,5;0,0096;2,52;CAJA;es
LECHE DE COCO;334;3;cod-334.jpg;24;328G;20098990;24X200ML;35,0 x 23,0 x 13,5;0,0109;7,8;CAJA;es
LEVADURA ORGÁNICA SECA;276;3;cod-276.jpg;12;10G;21021090;120X10G;20,0 X 9,0 X 10,0;0,0018;0,36;CAJA;es
LEVADURA PARA HORNEAR;146;3;cod-146.jpg;12;100G;21023000;72X100G;49,0 X 22,0 X 15,5;0,0167;9,34;CAJA;es
BOLITAS DE SAGU SABOR FRESA;303;3;cod-303.jpg;12;250G;11062000;12X250G;26,5 X 23,0 X 18,0;0,011;2,43;CAJA;es
BOLITAS DE SAGU SABOR UVA;302;3;cod-302.jpg;12;250G;11062000;12X250G;26,5 X 23,0 X 18,0;0,011;3,43;CAJA;es
SAGU;64;3;cod-64.jpg;12;500G;11062000;12X500G;33,0 X 45,0 X 12,0;0,0178;12,42;CAJA;es
SAL AMONIACO;40;4;cod-40.jpg;12;50G;28369913;24X50G;21,5 X 17,5 X 16,0;0,006;2,11;CAJA;es
BICARBONATO DE SODIO;22;4;cod-22.jpg;24;70G;28363000;24X70G;21,5 X 17,5 X 16,0;0,006;1,9;CAJA;es
BICARBONATO DE SODIO;351;4;cod-351.jpg;24;500G;28363000;24X500G;34,0 X 36,0 X 12,0;0,0147;12,24;CAJA;es
MANZANILLA EM FLOR;196;4;cod-196.jpg;12;5G;12119090;24X5G;20,0 X 13,0 X 8,0;0,0021;0,29;CAJA;es
CEBOLLÍN DESHIDRATADO;38;4;cod-38.jpg;12;10G;7129090;24X10G;18,0 X 12,0 X 9,0;0,0019;0,42;CAJA;es
PEREJIL;57;4;cod-57.jpg;12;7G;7129090;24X7G;21,5 X 15,5 X 8,0;0,0027;3,53;CAJA;es
COLORÍFICO;95;4;cod-95.jpg;12;70G;17035000;100X70G;32,0 X 29,0 X 18,0;0,0167;7,68;CAJA;es
COLORÍFICO;373;4;cod-373.jpg;12;200G;21039021;24X200G;32,0 X 21,0 X 16,0;0,0108;4,97;CAJA;es
COLORÍFICO;68;4;cod-68.jpg;12;500G;21039021;12X500G;32,0 X 20,0 X 13,0;0,0083;6,24;CAJA;es
COLORÍFICO;240;4;cod-240.jpg;12;1,01KG;21039029;12X1,01KG;39,0 X 37,0 X 12,0;0,0173;12,43;CAJA;es
AZAFRÁN;55;4;cod-55.jpg;12;30G;9102000;24X30G;22,0 X 17,5 X 13,0;0,005;0,92;CAJA;es
ANÍS;41;4;cod-41.jpg;18;20G;9096110;24X20G;20,0 X 12,0 X 9,0;0,0022;0,68;CAJA;es
LAUREL EN HOJAS;28;4;cod-28.jpg;24;7G;9109900;24X7G;20,0 X 16,0 X 9,0;0,0029;0,35;CAJA;es
LAUREL EN POLVO;83;4;cod-83.jpg;12;10G;9109900;24X10G;19,5 X 5,0 X 9,0;0,0009;0,45;CAJA;es
ALBAHACA;54;4;cod-54.jpg;12;10G;12119090;24X10G;21,5 X 16,0 X 9,0;0,0031;0,043;CAJA;es
NUEZ MOSCADA EN BOLA;29;4;cod-29.jpg;24;20G;21041011;24X2UNID;19,0 X 9,0 X 9,0;0,0015;0,42;CAJA;es
NUEZ MOSCADA EN POLVO;126;4;cod-126.jpg;12;15G;9081200;24X15G;20,0 X 9,0 X 9,0;0,0016;2,26;CAJA;es
PÁPRICA DULCE;399;4;cod-399.jpg;12;20G;9041200;24X20G;22,0 X 17,0 X 13,0;0,0049;0,67;CAJA;es
PÁPRICA PICANTE ;400;4;cod-400.jpg;12;20G;9041200;24X20G;22,0 X 17,0 X 13,0;0,0049;0,67;CAJA;es
PIMIENTA PICANTE BLANCA;49;4;cod-49.jpg;18;30G;9041200;24X30G;22,0 X 17,5 X 13,0;0,005;0,92;CAJA;es
PIMIENTA CALABRESA;69;4;cod-69.jpg;12;20G;9042100;24X20G;20,0 X 14,0 X 9,0;0,0025;0,67;CAJA;es
PIMIENTA CON COMINO;47;4;cod-47.jpg;18;30G;9041200;24X30G;22,0 X 17,5 X 13,0;0,005;0,94;CAJA;es
COMINO;26;4;cod-26.jpg;12;40G;9093200;24X40G;22,0 X 17,5 X 15,5;0,006;1,16;CAJA;es
PIMIENTA PICANTE EN GRANOS;32;4;cod-32.jpg;18;40G;9041200;24X40G;22,0 X 17,5 X 13,5;0,0052;1,21;CAJA;es
PIMIENTA PICANTE EN POLVO;44;4;cod-44.jpg;18;40G;9041200;125X40G;30,0 X 29,5 X 16,0;0,0142;5,91;CAJA;es
PIMIENTA PICANTE EN POLVO;378;4;cod-378.jpg;18;200G;9041200;12X200G;29,5 X 22,5 X 11,5;0,0076;2,48;CAJA;es
PIMIENTA PICANTE ANIA;332;4;cod-332.jpg;18;30G;9041200;125X30G;31,0 X 30,0 X 16,0;0,0149;4,25;CAJA;es
PEREJIL DESHIDRATADO;50;4;cod-50.jpg;12;10G;7129090;24X10G;20,0 X 13,0 X 9,0;0,0023;0,44;CAJA;es
ROMERO;402;4;cod-402.jpg;12;20G;9109900;24X20G;19,5 X 5,0 X 9,0;0,0009;0,67;CAJA;es
SÉMOLA DE MAIZ AMARILLO (CANJICA);45;5;cod-45.jpg;12;500G;11042300;24X500G;37,0 X 36,0 X 12,0;0,016;12,18;CAJA;es
SÉMOLA DE MAIZ BLANCO (CANJICA);1;5;cod-1.jpg;12;500G;11042300;24X500G;36,0 X 35,0 X 12,0;0,0151;12,22;CAJA;es
 SÉMOLA DE MAIZ (CANJIQUIN XERÉM);291;5;cod-291.jpg;12;500G;12042300;24X500G;35,0 X 38,0 X 11,0;0,0146;12,26;CAJA;es
SÉMOLA DE MAIZ FINA (QUIRERA);381;5;cod-381.jpg;12;500G;11031300;24X500G;33,0 X 43,0 X 11,0;0,0156;12,23;CAJA;es
PALOMITAS DE MAIZ  AMÉRICA;9;5;cod-9.jpg;12;500G;10059010;24X500G;35,0 x 36,0 x 11,0;0,0139;12,28;CAJA;es
PALOMITAS DE MAIZ IMPORTADA;10;5;cod-10.jpg;12;500G;10059010;24X500G;38,0 X 37,0 X 11,0;0,0155;12,19;CAJA;es
FAROFA TRADICIONAL LISTA (HARINA DE YUCA CON SAZÓN);147;5;cod-147.jpg;8;400G;19019090;24X400G;43,0 X 16,5 X 49,5;0,0351;9,98;CAJA;es
FAROFA PICANTE LISTA (HARINA DE YUCA CON SAZÓN);94;5;cod-94.jpg;8;400G;19019090;24X400G;43,0 X 16,5 X 49,5;0,0351;9,98;CAJA;es
FAROFA LISTA SABOR TOCINO;124;5;cod-124.jpg;8;400G;19019090;24X400G;43,0 X 16,5 X 49,0;0,0348;9,98;CAJA;es
FAROFA DE SOYA CRUJIENTE;386;5;cod-386.jpg;8;250G;19019090;24X250G;34,0 X 34,0 X 10,0;0,0116;6,3;CAJA;es
FAROFA LISTA (HARINA DE MAIZ);125;5;cod-125.jpg;8;400G;19019090;24X400G;35,0 X 15,0 X 38,5;0,0202;9,92;CAJA;es
FAROFA LISTA SABOR PICAÑA;279;5;cod-279.jpg;8;250G;19019090;24X250G;34,0 X 34,0 X 10,0;0,0116;6,32;CAJA;es
HARINA DE YUCA  BIJU;5;5;cod-5.jpg;12;500G;11062000;20X500G;35,0 X 64,0 X 18,0;0,0403;10,35;CAJA;es
HARINA DE MAÍZ;2;5;cod-2.jpg;12;500G;11022000;20X500G;37,0 X 71,0 X 13,0;0,0342;10,3;CAJA;es
TAPIOCA HIDRATADA;306;5;cod-306.jpg;6;400G;19030000;24X400G;44,0 X 29,5 X 17,0;0,0221;10,15;CAJA;es
HARINA DE MAIZ ;281;5;cod-281.jpg;8;500G;11022000;24X500G;32,0 X 48,0 X 16,0;0,0246;12,33;CAJA;es
FUBA PRECOCIDO (HARINA FINA DE MAIZ);283;5;cod-283.jpg;8;500G;11022000;24X500G;37,0 X 44,0 X 15,0;0,0244;12,24;CAJA;es
FUBA MIMOSO;8;5;cod-8.jpg;12;500G;11022000;24X500G;34,0 X 40,0 X 12,0;0,0163;12,23;CAJA;es
FUBA MIMOSO;7;5;cod-7.jpg;12;1KG;11022000;12X1KG;24,0 X 40,0 X 17,0;0,0163;12,32;CAJA;es
HARINA DE YUCA CRUDA;3;5;cod-3.jpg;12;500G;11062000;24X500G;32,0 X 45,0 X 11,0;0,0158;12,31;CAJA;es
HARINA DE YUCA GRUESA;39;5;cod-39.jpg;12;1,0KG;11062000;15X1KG;37,0 X 55,0 X 17,0;0,0346;15,26;CAJA;es
HARINA DE YUCA TOSTADA;4;5;cod-4.jpg;12;500G;11062000;24X500G;36,0 x 47,0 x 13,0;0,022;12,44;CAJA;es
HARINA DE PAN RALLADO;6;5;cod-6.jpg;12;500G;19059000;24X500G;32,0 X 12,0 X 42,0;0,0161;12,26;CAJA;es
HARINA DE YUCA EN POLVO (ÁCIDA);12;5;cod-12.jpg;12;500G;11081400;24X500G;40,0X 40,0 X 11,0;0,0176;12,36;CAJA;es
HARINA DE YUCA EN POLVO (DULCE);11;5;cod-11.jpg;12;500G;11081400;24X500G;31,0 X 34,0 X 14,0;0,0148;12,22;CAJA;es
TRIGO PARA KIBE;14;5;cod-14.jpg;12;500G;11031100;24X500G;33,0 X 46,0 X 11,0;0,0167;12,21;CAJA;es
TRIGO PARA KIBE;56;5;cod-56.jpg;12;1KG;11031100;12X1K;37,0 X 24,0 X 15,0;0,0133;12,2;CAJA;es
HARINA DE PAN RALLADO;200;5;cod-200.jpg;12;5,0KG;19059090;1X5KG;37,5 X 42,5 X 2,5;0,004;5,05;CAJA;es
HARINA DE YUCA CRUDA;199;5;cod-199.jpg;12;5,0KG;11062000;1X5KG;35,0 X 6,0 X 39,0;0,0082;5,05;CAJA;es
HARINA DE YUCA EN POLVO MIMOSO;198;5;cod-198.jpg;8;5KG;11022000;1X5KG;32,0 X 6,0 X 37,0;0,0071;5,05;CAJA;es
TRIGO PARA KIBE;201;5;cod-201.jpg;12;5KG;11031100;1X5KG;32,0 X 7,0 X 37,0;0,0083;5,05;CAJA;es
GELATINA SABOR UVA;204;6;cod-204.jpg;12;20G;21069029;36X20G;26,0 X 18,0 X 17,0;0,008;0,59;CAJA;es
 GELATINA SABOR PIÑA;205;6;cod-205.jpg;12;20G;21069029;36X20G;26,0 X 18,0 X 17,0;0,008;0,59;CAJA;es
GELATINA SABOR CEREZA;207;6;cod-207.jpg;12;20G;21069029;36X20G;26,0 X 18,0 X 17,0;0,008;0,59;CAJA;es
GELATINA SABOR FRAMBUESA;206;6;cod-206.jpg;12;20G;21069029;36X20G;26,0 X 18,0 X 17,0;0,008;0,59;CAJA;es
GELATINA SABOR FRUTAS ROJAS;242;6;cod-242.jpg;12;20G;21069029;36X20G;26,0 X 18,0 X 17,0;0,008;0,59;CAJA;es
GELATNA SABOR LIMÓN;208;6;cod-208.jpg;12;20G;21069029;36X20G;26,0 X 18,0 X 17,0;0,008;0,59;CAJA;es
GELATINA SABOR MARACUYA;235;6;cod-235.jpg;12;20G;21069029;36X20G;26,0 X 18,0 X 17,0;0,008;0,59;CAJA;es
GELATINA SABOR FRESA;203;6;cod-203.jpg;12;20G;21069029;36X20G;26,0 X 18,0 X 17,0;0,008;0,59;CAJA;es
GELATINA SABOR PIÑA CERO AZÚCAR;216;6;cod-216.jpg;12;12G;21069029;36X12G;26,0 X 18,0 X 17,0;0,008;0,59;CAJA;es
GELATINA SABOR LIMÓN CERO AZÚCAR;218;6;cod-218.jpg;12;12G;21069029;36X12G;26,0 X 18,0 X 17,0;0,008;0,59;CAJA;es
GELATINA SABOR FRESA CERO AZÚCAR ;215;6;cod-215.jpg;12;12G;21069029;36X12G;26,0 X 18,0 X 17,0;0,008;0,59;CAJA;es
GELATINA SABOR UVA  CERO AZÚCAR ;217;6;cod-217.jpg;12;12G;21069029;36X12G;26,0 X 18,0 X 17,0;0,008;0,59;CAJA;es
GELATINA SIN SABOR;350;6;cod-350.jpg;12;12G;21069029;36X12G;26,0 X 18,0 X 17,0;0,008;0,59;CAJA;es
CHANTILLY;256;6;cod-256.jpg;12;50G;21069021;18X50G;26,5 X 16,0 X 21,5;0,0091;1,08;CAJA;es
MARIA MOLE;214;6;cod-214.jpg;12;50G;21069021;36X50G;26,0 X 18,0 X 17,0;0,008;2,32;CAJA;es
PUDIN SABOR VAINILLA;212;6;cod-212.jpg;12;50G;21069021;36X50G;26,5 X 17,5 X 18,5;0,0086;2,32;CAJA;es
PUDIN SABOR CHOCOLATE;211;6;cod-211.jpg;12;50G;21069021;36X50G;26,5 X 17,5 X 18,5;0,0086;2,32;CAJA;es
PUDIN SABOR FRESA;213;6;cod-213.jpg;12;50G;21069021;36X50G;26,5 X 17,5 X 18,5;0,0086;2,32;CAJA;es
MANÍ CRUDO;19;7;cod-19.jpg;12;500G;12024200;24X500G;30,5 X 40,0 X 11,0 ;0,0134;12,35;CAJA;es
MANI  BLANCO RUNER;131;7;cod-131.jpg;12;500G;12024200;24X500G;30,0 X 47,0 X 13,0;0,0183;12,22;CAJA;es
ALVERJAS PARTIDAS;13;7;cod-13.jpg;12;500G;7131090;24X500G;33,0 X 34,0 X 13,0;0,0146;12,3;CAJA;es
FRIJOLES BLANCOS;17;7;cod-17.jpg;12;500G;7133329;24X500G;39,0 X 39,0 X 11,0;0,0167;12,42;CAJA;es
GARBANZO;20;7;cod-20.jpg;18;500G;7089000;24X500G;30,0 X 44,0 X 11,0;0,0145;12,38;CAJA;es
LENTEJA;21;7;cod-21.jpg;18;500G;7134090;24X500G;36,0 X 40,0 X 12,0;0,0173;12,36;CAJA;es
TRIGO EN GRANOS;401;7;cod-401.jpg;12;500G;11011900;24X500G;31,5 X 29,5 X 15,0;0,0139;6,42;CAJA;es
AVENA EN HOJUELAS;157;9;cod-157.jpg;6;200G;11041200;12X200G;26,0 X 23,5 X 18,0 ;0,011;3,02;CAJA;es
AVENA EN HOJUELAS FINAS;158;9;cod-158.jpg;6;200G;11041200;12X200G;26,0 X 23,5 X 18,0 ;0,011;3,02;CAJA;es
HARINA DE AVENA;189;9;cod-189.jpg;8;200G;11029000;12X200G;26,0 X 23,5 X 18,0 ;0,011;3,01;CAJA;es
QUINUA REAL EN COPOS;284;9;cod-284.jpg;12;100G;11041900;12X100G;26,5 X 23,5 X 18,0;0,0112;1,5;CAJA;es
SEMILLAS DE CHÍA;266;9;cod-266.jpg;12;100G;12079990;12X100G;26,0 X 23,5 X 18,0;0,011;1,72;CAJA;es
AZÚCAR RUBIA;123;9;cod-123.jpg;12;500G;17019900;12X500G;31,5 X 29,5 X 15,0;0,0139;6,42;CAJA;es
EXTRACTO DE SOJA;127;9;cod-127.jpg;12;300G;12081000;12X300G;29,5 X 15,0 X 31,5;0,0139;4,1;CAJA;es
HARINA DE SOJA TOSTADA (KINAKO);178;9;cod-178.jpg;12;300G;12081000;12X300G;29,5 X 15,0 X 31,5;0,0139;6,59;CAJA;es
FIBRA DE TRIGO;174;9;cod-174.jpg;8;250G;23023090;12X250G;29,5 X 15,0 X 31,5;0,0139;3,48;CAJA;es
AJONJOLÍ;220;9;cod-220.jpg;12;200G;12074090;12X200G;32,0 X 21,0 X 16,0;0,0108;2,92;CAJA;es
LINAZA DORADA;219;9;cod-219.jpg;12;200G;12040090;12X200G;32,0 X 21,0 X 16,0;0,0108;2,79;CAJA;es
GRANOLA TRADICIONAL;221;9;cod-221.jpg;12;50G;19041000;12X250G;28,5 X 20,0 X 17,0;0,0097;3,1;CAJA;es
GRANOLA PLÁTANO CON CANELA;224;9;cod-224.jpg;12;50G;19041000;12X250G;20,0 X 28,5 X 17,0;0,0097;3,1;CAJA;es
GRANOLA CON CASTAÑAS;311;9;cod-311.jpg;12;50G;19041000;12X250G;28,5 X 20,0 X 17,0;0,0097;3,1;CAJA;es
GRANOLA CHOCOLATE;312;9;cod-312.jpg;12;50G;19041000;12X250G;28,5 X 20,0 X 17,0;0,0097;3,1;CAJA;es
GRANOLA CON FRUTAS ;309;9;cod-309.jpg;12;50G;19041000;12X250G;28,5 X 20,0 X 17,0;0,0097;3,1;CAJA;es
GRANOLA SIN AZÚCAR;310;9;cod-310.jpg;12;50G;19041000;12X250G;28,5 X 20,0 X 17,0;0,0097;3,1;CAJA;es
SEMILLA DE LINAZA;179;9;cod-179.jpg;12;200G;12040090;12X200G;32,0 X 21,0 X 16,0;0,0108;2,79;CAJA;es
PROTEINA DE SOJA TEXTURIZADA;225;9;cod-225.jpg;12;250G;21061000;12X250G;29,5 X 15,0 X 31,5;0,0139;3,18;CAJA;es
SOJA EN GRANOS;139;9;cod-139.jpg;12;500G;12019000;12X500G;29,5 X 15,0 X 31,5;0,0139;6,47;CAJA;es
AVENA EN HOJUELAS;176;9;cod-176.jpg;6;400G;11041200;12X400G;31,5 X 29,5 X 15,0;0,0139;5,32;CAJA;es
SAL MOLIDA;379;9;cod-379.jpg;24;1KG;25010020;30X1KG;31,0 X 47,0 X 14,5;0,0211;31,64;CAJA;es
ACEITE DE COCO EXTRA VIRGEN;396;9;cod-396.jpg;24;450G;15131100;12X250ML;20,5 X 26,0 X 16,5;0,0088;5,67;CAJA;es
COCO ACEITE REFINADO SIN SABOR;397;9;cod-397.jpg;24;450G;15131900;12X250ML;20,5 X 26,0 X 16,5;0,0088;5,67;CAJA;es
HARINA DE ARROZ;393;9;cod-393.jpg;12;250G;11029000;12X250G;26,0 X 18,0 X 23,5;0,011;3,6;CAJA;es
HARINA PLÁTANO VERDE;394;9;cod-394.jpg;12;200G;11063000;12X200G;26,0 X 18,0 X 23,5;0,011;3,01;CAJA;es
HARINA DE BERENJENA;388;9;cod-388.jpg;12;200G;21069030;12X200G;26,0 X 18,0 X 23,5;0,011;3,01;CAJA;es
HARINA DE CHIA;395;9;cod-395.jpg;12;200G;12089090;12X200G;26,0 X 18,0 X 23,5;0,011;3,01;CAJA;es
HARINA DE COCO;389;9;cod-389.jpg;12;200G;11063000;12X200G;26,0 X 18,0 X 23,5;0,011;3,01;CAJA;es
HARINA DE CÁSCARA DE MARACUYA;391;9;cod-391.jpg;12;200G;11063000;12X200G;26,0 X 18,0 X 23,5;0,011;3,01;CAJA;es
HARINA DE UVA;392;9;cod-392.jpg;12;200G;11063000;12X200G;26,0 X 18,0 X 23,5;0,011;3,01;CAJA;es
SALSA KÉTCHUP TRADICIONAL  ANIA;383;8;cod-383.jpg;15;190G;21032010;24X190G;29,0 X 19,5 X 17,0;0,0096;5,4;CAJA;es
TRADICIONAL SALSA ANIA;382;8;cod-382.jpg;15;370G;21032010;24X370G;35,0 X 23,5 X 21,5;0,0177;9,77;CAJA;es
MOSTAZA  TRADICIONALANIA;384;8;cod-384.jpg;15;190G;21033021;24X190G;29,0 X 19,5 X 17,0;0,0096;5,4;CAJA;es
MAYONESA TRADICIONAL;385;8;cod-385.jpg;10;200G;21039011;24X200G;24,0 X 16,3 X 14,5;0,0057;16,3;CAJA;es
CREMA DE AJÍ ABSOLUTO;380;10;cod-380.jpg;24;240G;21039091;12X170ML;24,0 X 18,5 X 14,5;0,0064;2,78;CAJA;es
SALSA DE AJÍ  CALABRESA;184;10;cod-184.jpg;24;183G;21039091;12X150ML;18,0 X 13,5 X 18,0;0,0044;2,3;CAJA;es
SALSA DE AJÍ PARA BARBACOAS;103;10;cod-103.jpg;24;189G;21039091;12X150ML;18,0 X 13,5 X 18,0;0,0044;13,5;CAJA;es
SALSA DE AJÍ TRADICIONAL;102;10;cod-102.jpg;24;189G;21039091;12X150ML;18,0 X 13,5 X 18,0;0,0044;2,31;CAJA;es
SALSA INGLESA;105;10;cod-105.jpg;24;194G;21039021;12X150ML;18,0 X 13,5 X 18,0;0,0044;2,44;CAJA;es
SALA ALIOLI (DE AJOS);109;10;cod-109.jpg;24;190G;21039091;12X150ML;18,0 X 13,5 X 18,0;0,0044;2,31;CAJA;es
SALSA DE SOYA (SILLAO);104;10;cod-104.jpg;24;195G;21031010;12X150ML;18,0 X 13,5 X 18,0;0,0044;2,49;CAJA;es
PATE DE AJO;353;10;cod-353.jpg;12;287G;21039091;12X234ML;25,0 X 18,0 X 20,0;0,009;4,58;CAJA;es
SALSA BARBECUE;299;10;cod-299.jpg;12;310G;21039091;12X234ML;25,30 X 18,0 X 20,0;0,0091;3,78;CAJA;es
SALSA CHIMICHURRI CLÁSICA;298;10;cod-298.jpg;12;298G;21039021;12X234ML;25,0 X 18,0 X 20,0;0,009;3,43;CAJA;es
SALSA DE BARBACOA TRADICIONAL;345;10;cod-345.jpg;12;300G;21039091;12X234ML;25,0 X 18,0 X 20,0;0,009;3,46;CAJA;es
SALSA DE BARBACOA PICANTE;352;10;cod-352.jpg;12;287G;21039091;12X234ML;25,0 X 18,0 X 20,0;0,009;3,55;CAJA;es
SALSA CASERA PARA ENSALADA;294;10;cod-294.jpg;12;279G;21039021;12X234ML;25,0 X 18,0 X 20,0;0,009;3,41;CAJA;es
SALSA ITALIANA PARA ENSALADA;295;10;cod-295.jpg;12;280G;21039091;12X234ML;25,0 X 18,0 X 20,0;0,009;3,47;CAJA;es
SALSA PARA ENSALADA  LIMÓN;296;10;cod-296.jpg;12;271G;21039091;12X234ML;25,0 X 18,0 X 20,0;0,009;3,48;CAJA;es
SALSA ROSE PARA ENSALADA;297;10;cod-297.jpg;12;280G;21039091;12X234ML;25,0 X 18,0 X 20,0;0,009;3,48;CAJA;es
SALSA DE AJÍ CAIPIRA;403;10;cod-403.jpg;24;181G;21039091;12X150ML;19,5 X 14,5 X 13,5;0,0038;2,24;CAJA;es
 SALSA DE AJÍ MINERO;404;10;cod-404.jpg;24;180G;21039091;12X150ML;19,5 X 14,5 X 13,5;0,0038;2,24;CAJA;es
SALSA DE AJÍ MEXICANO;407;10;cod-407.jpg;24;183G;21039021;12X150ML;19,5 X 14,5 X 13,5;0,0038;2,24;CAJA;es
SALSA DE AJÍ VERDE CREMOSA;405;10;cod-405.jpg;18;182G;21039091;12X150ML;19,5 X 14,5 X 13,5;0,0038;2,24;CAJA;es
SALSA DE AÍ  TRADICIONAL;160;10;cod-160.jpg;24;554G;21039091;12X500ML;19,0 X 14,0 X 19,0;0,0051;6,92;CAJA;es
SALSA DE AJÍ CASERA;406;10;cod-406.jpg;24;560G;21039091;12X500ML;25,0 X 20,0 X 24,0;0,012;6,92;CAJA;es
ACEITE DE PALMA;331;10;cod-331.jpg;24;230G;15111000;12X200ML;23,0 X 18,0 X 15,0;0,0062;2,66;CAJA;es
SALSA DE SOYA (SILLAO);161;10;cod-161.jpg;24;611G;21031010;12X500ML;19,0 X 14,0 X 19,0;0,0051;7,38;CAJA;es
ALPISTE;33;11;cod-33.jpg;24;500G;10083090;24X500G;30,0 x 48,0 x 16,5;0,0238;12,45;CAJA;es
GIRASOL;34;11;cod-34.jpg;24;250G;12060090;24X250G;30,0 X 40,0 X 12,0;0,0144;6,31;CAJA;es
GIRASOL;159;11;cod-159.jpg;24;500G;12060090;24X500G;40,0 X 56,0 X 14,0;0,0314;12,39;CAJA;es
MIJO;35;11;cod-35.jpg;24;500g;10082190;24X500G;30,0 x 39,0 x 14,0;0,0164;12,36;CAJA;es
PEQUÍ REBANADO;354;12;cod-354.jpg;12;110G;20019000;12X325G;25,0 X 19,0 X 16,0;0,0076;4,613;CAJA;es
AJÍ CEREZO;337;12;cod-337.jpg;12;160G;20019000;12X160G;25,0 X 19,0 X 16,0;0,0076;6,78;CAJA;es
AJÍ ADJUMA;340;12;cod-340.jpg;12;100G;20019000;12X100G;13,0 X 18,5 X 20,0;0,0048;4,23;CAJA;es
AJÍ ROJO EN PASTA;82;12;cod-82.jpg;12;300G;20059900;12X300G;29,5 X 22,5 X 11,5;0,0076;4,06;CAJA;es
AJÍ HABANERO;339;12;cod-339.jpg;12;120G;20019000;12X120G;25,0 X 19,0 X 16,0;0,0076;6,92;CAJA;es
AJÍ CHILE;344;12;cod-344.jpg;12;110G;20019000;12X110G;25,0 X 19,0 X 16,0;0,0076;6,96;CAJA;es
AJÍ MALAGUETA;342;12;cod-342.jpg;12;100G;20019000;12X100G;13,0 X 18,5 X 20,0;0,0048;4,,19;CAJA;es
AJÍ VERDE CUMARI;338;12;cod-338.jpg;12;35G;20019000;12X35G;15,0 x 12,5 x 16,5;0,0031;2,47;CAJA;es
AJÍ ROJO CUMARI;341;12;cod-341.jpg;12;35G;20019000;12X35G;15,0 X 12,5 X 16,5;0,0031;2,47;CAJA;es
PALOMITAS CON TOCINO;150;13;cod-150.jpg;12;100G;20081900;24X100G;37,0 X 25,0 X 12,0;0,0111;3,11;CAJA;es
PALOMITAS CON  CHOCOLATE;304;13;cod-304.jpg;12;100G;20081900;24X100G;37,0 X 25,0 X 12,0;0,0111;3,11;CAJA;es
PALOMITAS DE MAIZ -CINE CON MANTEQUILLA;305;13;cod-305.jpg;12;100G;20081900;24X100G;37,0 X 25,0 X 12,0;0,0111;3,11;CAJA;es
PALOMITAS DE MAIZ;61;13;cod-61.jpg;12;100G;20081900;24X100G;37,0 X 25,0 X 12,0;0,0111;3,11;CAJA;es
PALOMITAS DE MAIZ NATURAL;60;13;cod-60.jpg;12;100G;20081900;24X100G;37,0 X 25,0 X 12,0;0,0111;3,11;CAJA;es
PALOMITAS DE MAIZ CON QUESO ;151;13;cod-151.jpg;12;100G;20081900;24X100G;37,0 X 25,0 X 12,0;0,0111;3,11;CAJA;es
CALDO EN CUBOS CARNE;348;15;cod-348.jpg;12;57G;21041011;16X10X57G;28,0 X 19,5 X 22,0;0,012;10,24;CAJA;es
CALDO  EN  CUBOS TOCINO;346;15;cod-346.jpg;12;57G;21041011;16X10X57G;28,0 X 19,5 X 22,0;0,012;10,24;CAJA;es
CALDO EN CUBOS  GALLINA;349;15;cod-349.jpg;12;57G;21041011;16X10X57G;28,0 X 19,5 X 22,0;0,012;10,24;CAJA;es
CALDO EN CUBOS  DE LEGUMBRES;347;15;cod-347.jpg;12;57G;21041011;16X10X57G;28,0 X 19,5 X 22,0;0,012;10,24;CAJA;es
CALDO DE CARNE EN POLVO;289;15;cod-289.jpg;12;1,01KG;21041019;12X1,01KG;30,0 X 36,0 X 15,0;0,0162;12,18;CAJA;es
CALDO DE GALLINA EN POLVO;288;15;cod-288.jpg;12;1,01KG;21041019;12X1,01KG;30,0 X 36,0 X 15,0;0,0162;12,18;CAJA;es
CALDO DE LEGUMBRES EN POLVO;287;15;cod-287.jpg;12;1,01KG;21041019;12X1,01KG;30,0 X 36,0 X 15,0;0,0162;12,18;CAJA;es
CREMA DE CEBOLLA;375;15;cod-375.jpg;12;1,01KG;21041019;12X1,01KG;39,0 X 41,0 X 14,0;0,0224;12,18;CAJA;es
CREMA DE CEBOLLA;292;15;cod-292.jpg;12;65G;21041011;4X12X65G;12,0 X 18,0 X 15,5;0,0033;0,79;CAJA;es
CREMA DE GALLINA;293;15;cod-293.jpg;12;65G;21041011;4X12X65G;51,0 X 19,0 X 16,5;0,016;3,22;CAJA;es
MOLEDOR MIX CONDIMENTERO;357;15;cod-357.jpg;24;50G;9041100;6X50G;17,0 X 12,0 X 14,0;0,0029;1,23;CAJA;es
MOLEDOR DE PIMIENTA EN GRANOS;359;15;cod-359.jpg;24;50G;9041100;6X50G;17,0 X 12,0 X 14,0;0,0029;1,23;CAJA;es
MOLEDOR DE SAL DE HIMALAYA;360;15;cod-360.jpg;24;100G;25010090;6X100G;17,0 X 12,0 X 14,0;0,0029;1,31;CAJA;es
MOLEDOR SAL HIMALAYA C / AJO,CEBOLLA Y PEREJIL;355;15;cod-355.jpg;24;95G;25010090;6X95G;17,0 x 12,0 x 14,0;0,0029;1,6;CAJA;es
MOLEDOR SAL HIMALAYA C /  HIERBAS FINAS;356;15;cod-356.jpg;24;100G;25010090;6X100G;17,0 x 12,0 x 14,0;0,0029;1,6;CAJA;es
MOLEDOR SAL HIMALAYA C / AJÍ CALABRESA;358;15;cod-358.jpg;24;100G;25010090;6X100G;17,0 x 12,0 x 14,0;0,0029;1,6;CAJA;es
REPUESTO P / MOLEDOR MIX PIMIENTA;364;15;cod-364.jpg;24;50G;9041100;6X50G;17,0 X 11,5 X 14,0;0,0027;0,36;CAJA;es
REPUESTO / MOLEDOR DE PIMIENTA NEGRA;366;15;cod-366.jpg;24;50G;9041100;6X50G;17,0 X 11,5 X 14,0;0,0027;0,36;CAJA;es
REPUESTO / MOLEDOR SAL HIMALAYA;367;15;cod-367.jpg;24;100G;25010090;6X100G;17,0 X 11,5 X 14,0;0,0027;0,77;CAJA;es
SAL ROSA DE  HIMALAYA MOLIDA;387;15;cod-387.jpg;24;400G;25010090;12X500G;17,5 X 21,5 X 16,0;0,006;4,98;CAJA;es
REPUUESTO /MOLEDOR SAL  HIMALAYA CON AJO CEBOLLA Y PEREJIL;362;15;cod-362.jpg;24;95G;25010090;6X95G;17,0 X 11,5 X 14,0;0,0027;0,68;CAJA;es
REPUESTO/ MOLEDOR SAL DE HIMALAYA HIERBAS FINAS;363;15;cod-363.jpg;24;100G;25010090;6X100G;17,0 X 11,5 X 14,0;0,0027;0,77;CAJA;es
REPUESTO/ MOLEDOR SAL DE  HIMALAYA SAL CON AJÍ CALABRASA;365;15;cod-365.jpg;24;100G;25010090;6X100G;17,0 X 11,5 X 14,0;0,0027;0,71;CAJA;es
SAZONADOR  AJO Y SAL;78;15;cod-78.jpg;24;400G;21039021;12X400G;21,5 X 17,5 X 16,0;0,006;5,11;CAJA;es
SAZONADOR COMPLETO CON AZAFRÁN;186;15;cod-186.jpg;24;400G;21039021;12X400G;21,5 X 17,5 X 16,0;0,006;5,12;CAJA;es
SAZONADOR PARA BARBACOA;79;15;cod-79.jpg;24;400G;21039021;12X400G;21,5 X 17,5 X 16,0;0,006;400G;CAJA;es
SAZONADOR COMPLETO PICANTE;76;15;cod-76.jpg;24;400G;21039021;12X400G;21,5 X 17,5 X 21,5;0,0081;5,11;CAJA;es
SAZONADOR COMPLETO SIN PICANTE;77;15;cod-77.jpg;24;400G;21039021;12X400G;21,5 X 17,5 X 16,0;0,006;5,11;CAJA;es
SAZONADOR COMPLETO /  HERBAS FINAS;187;15;cod-187.jpg;24;400G;21039021;12X400G;21,5 X 17,5 X 16,0;0,006;5,12;CAJA;es
SAZONADOR AJO Y SAL;243;15;cod-243.jpg;24;1,01KG;21039029;12X1,01KG;35,0 X 24,0 X 29,0;0,0244;13,04;CAJA;es
SAZONADOR AJO Y SAL;140;15;cod-140.jpg;24;280G;21039021;24X280G;28,0 X 22,0 X 20,0;0,0123;7,26;CAJA;es
SAZONADOR COMPLETO PICANTE;244;15;cod-244.jpg;24;1,01KG;21039029;12X1,01KG;35,0 X 24,0 X 29,0;0,0244;13,04;CAJA;es
SAZONADOR COMPLETO PICANTE;141;15;cod-141.jpg;24;280G;21039021;24X280G;28,0 X 22,0 X 20,0;0,0123;7,26;CAJA;es
SAZONADOR COMPLETO SIN PICANTE ;255;15;cod-255.jpg;24;1,01KG;21039029;12X1,01KG;35,0 X 24,0 X 29,0;0,0244;13,04;CAJA;es
SAZONADOR COMPLETO SIN PICANTE;142;15;cod-142.jpg;24;280G;21039021;24X280G;28,0 X 22,0 X 20,0;0,0123;7,26;CAJA;es
AJO Y CEBOLLIA PICADITA S / SAL;97;15;cod-97.jpg;8;300G;20059900;12X300G;29,5 X 22,5 X 11,5;0,0076;5,15;CAJA;es
PURO AJO Y CEBOLLIA PICADITA S / SAL;80;15;cod-80.jpg;8;300G;20059900;12X300G;29,5 X 22,5 X 11,5;0,0076;5,15;CAJA;es
PURO AJO Y CEBOLLIA PICADITA S / SAL;209;15;cod-209.jpg;8;1,01KG;7129090;6X1,01KG;39,0 X 13,5 X 25,5;0,0134;6,58;CAJA;es
 PURO AJO Y CEBOLLIA PICADITA S / SAL;233;15;cod-233.jpg;8;3,5KG;7129090;1X3,5KG;-;;3,5;CAJA;es
SAZONADOR ESPECIAL AJO , CEBOLLA  Y PEREJIL;112;16;cod-112.jpg;12;20G;21039021;24X20G;20,0 X 16,0 X 9,0;0,0029;0,7;CAJA;es
SAZONADOR ESPECIAL BAIANO;73;16;cod-73.jpg;12;30G;21039021;24X30G;22,0 X 17,5 X 13,0;0,005;0,91;CAJA;es
SAZONADOR  ESPECIAL P/CHIMICHURRI;90;16;cod-90.jpg;12;15G;21039021;24X15G;16,0 X 8,0 X 16,0;0,002;0,54;CAJA;es
SAZONADOR ESPECIAL CURRY;371;16;cod-371.jpg;12;20G;21039021;24X20G;20,0 X 8,0 X 9,0;0,0014;0,55;CAJA;es
SAZONADOR ESPECIAL  HIERBAS FINAS;89;16;cod-89.jpg;12;10G;21039021;24X10G;21,0 X 16,0 X 10,0;0,0034;0,42;CAJA;es
SAZONADOR  ESPECIAL NORESTE;370;16;cod-370.jpg;12;20G;21039021;24X20G;20,0 X 8,0 X 9,0;0,0014;0,55;CAJA;es
SAZONADOR ESPECIAL AVES;115;16;cod-115.jpg;12;30G;21039021;24X30G;22,0 X 17,5 X 13,0;0,005;0,93;CAJA;es
SAZONADOR ESPECIAL CORDERO;369;16;cod-369.jpg;12;20G;21039021;24X20G;18,0 X 10,0 X 9,0;0,0016;0,55;CAJA;es
SAZONADOR ESPECIAL CARNE;114;16;cod-114.jpg;12;30G;21039021;24X30G;22,0 X 17,5 X 13,0;0,005;0,92;CAJA;es
SAZONADOR ESPECIAL PESCADO;113;16;cod-113.jpg;12;30G;21039021;24X30G;22,0 X 17,5 X 13,0;0,005;0,91;CAJA;es
SAZONADOR ESPECIAL PIZZA;74;16;cod-74.jpg;12;10G;21039021;24X10G;22,0 X 13,0 X 9,0;0,0026;4,03;CAJA;es
SAZONADOR ESPECIAL VINAGRETA;185;16;cod-185.jpg;12;20G;21039021;24X20G;20,0 X 19,0 X 9,0;0,0034;0,68;CAJA;es
SAZONADOR ESPECIAL TOMATE ,CEBOLLA Y PEREJIL;144;16;cod-144.jpg;12;15G;21039021;24X15G;20,0 X 17,5 X 9,0;0,0032;0,55;CAJA;es
SAZONADOR  PRÁCTICO SABOR  AJO ;376;14;cod-376.jpg;12;50G;21039021;72X50G;18,0 X 38,0 X 19,5;0,0133;4,46;CAJA;es
SAZONADOR PRÁCTICA SABOR  P/AVES , PESCADO Y ARROZ.;231;14;cod-231.jpg;12;50G;21039021;72X50G;18,0 X 38,0 X 19,5;0,0133;4,46;CAJA;es
 SAZONADOR PRÁCTICA SABOR P/CARNE, VERDURAS Y ARROZ;230;14;cod-230.jpg;12;50G;21039021;72X50G;18,0 X 38,0 X 19,5;0,0133;4,46;CAJA;es
SAZONADOR PRÁCTICA SABOR, P/FRIJOLES, HUEVOS Y ARROZ;227;14;cod-227.jpg;12;50G;21039021;72X50G;18,0 X 38,0 X 19,5;0,0133;4,46;CAJA;es
SAZONADOR PRÁCTICA SABOR P/VERDURAS, LEGUMBRES Y ARROZ;226;14;cod-226.jpg;12;50G;21039021;72X50G;18,0 X 38,0 X 19,5;0,0133;4,46;CAJA;es
SAZONADOR PRÁCTICA SABOR P/PASTA, PATATAS Y ARROZ;228;14;cod-228.jpg;12;50G;21039021;72X50G;18,0 X 38,0 X 19,5;0,0133;4,46;CAJA;es
SAZONADOR PRÁCTICA  SABOR DEL NORESTE;277;14;cod-277.jpg;12;50G;21039021;72X50G;18,0 X 38,0 X 19,5;0,0133;4,46;CAJA;es
SABOR SAZONADOR P PRÁCTICA / ENSALADA;229;14;cod-229.jpg;12;50G;21039021;72X50G;18,0 X 38,0 X 19,5;0,0133;4,46;CAJA;es
 SAZONADOR PRÁCTICA SABOR P / CARNE, VERDURAS Y ARROZ;290;14;cod-290.jpg;12;1,01KG;21039029;12X1,01KG;37,0 X 30,0 X 15,0;0,0167;12,17;CAJA;es
TAPIOCA HIDRATADA;308;5;cod-308.jpg;6;800G;19030000;12X800G;44,0 X 29,5 X 17,0;0,0221;10,15;CAJA;es
LINAZA MOLIDA;180;9;cod-180.jpg;12;200G;12040090;12X200G;32,0 X 21,0 X 16,0;0,0108;2,79;CAJA;es
SAZONADOR ESPECIAL SABOR AJO,CEBOLLA Y PEREJIL;245;16;cod-245.jpg;12;1KG;21039021;1X1KG;34,0 X 5,0 X 39,0;0,0066;1,04;CAJA;es
SAZONADOR ESPECIAL SABOR, CEBOLLA Y PEREJIL;253;16;cod-253.jpg;12;1KG;21039021;1X1KG;34,0 X 5,0 X 39,0;0,0066;1,04;CAJA;es
SAZONADOR ESPECIAL VINAGRETA;254;16;cod-254.jpg;12;1KG;21039021;1X1KG;34,0 X 5,0 X 39,0;0,0066;1,04;CAJA;es
SAL DE PARRILA TRADICIONAL 6X650G;411;15;cod-411.jpg;24;650G;25010090;6X650G;15,0 X 22,5 X 15,0;0,0051;4,58;CAJA;es
SAL DE PARRILA 6X400G PORCINA;415;15;cod-415.jpg;24;400G;21039021;6X400G;12,0 X 22,0 X 15,0;0,0041;2,96;CAJA;es
SAL DE PARRILA CORDERO 6X400G;414;15;cod-414.jpg;24;400G;21039021;6X400G;12,0 X 22,0 X 15,0;0,0041;3,19;CAJA;es
SAL DE PARRILLA LEMON PEPPER 6X400G;413;15;cod-413.jpg;24;400G;21039021;6X400G;12,0 X 22,0 X 15,0;0,0041;2,96;CAJA;es
SAZONADOR ESPECIAL LEMON PEPPER;409;16;cod-409.jpg;12;20G;21039021;24X20G;20,0 X 8,0 X 9,0;0,0014;0,55;CAJA;es
SAZONADOR ESPECIAL ZAATAR;410;16;cod-410.jpg;12;20G;21039021;24X20G;20,0 X 8,0 X 9,0;0,0014;0,55;CAJA;es
CANELA EN  POLVO;23;4;cod-23.jpg;12;30G;9062000;24X30G;13,0 X 17,50 X 13,0;0,003;0,93;CAJA;es
CANELA ENTERA 20G X 24;42;4;cod-42.jpg;24;20G;9061100;24X20G;20,0 X 14,0 X 8,0;0,0022;6,86;CAJA;es
CEBOLLA VERDE DESHIDRATADA;246;4;cod-246.jpg;12;1KG;7129090;1X1KG;34,0 X 5,0 X 39,0;0,0066;1,04;CAJA;es
CEBOLLÍN;247;4;cod-247.jpg;12;1KG;7129090;1X1KG;34,0 X 5,0 X 39,0;0,0066;1,03;CAJA;es
LAUREL EN HOJAS ;248;4;cod-248.jpg;24;1KG;9109900;1X1KG;28,0 X 7,0 X 36,0;0,0071;1,04;CAJA;es
ALBAHACA;249;4;cod-249.jpg;12;1KG;12119090;1X1KG;34,0 X 5,0 X 39,0;0,0066;1,04;CAJA;es
AJÍ CALABRIA;251;4;cod-251.jpg;12;1KG;9042100;1X1KG;34,0 X 5,0 X 39,0;0,0066;1,04;CAJA;es
PEREJIL DESHIDRATADO;252;4;cod-252.jpg;12;1KG;7129090;1X1KG;34,0 X 5,0 X 39,0;0,0066;1,04;CAJA;es
JENGIBRE;412;4;cod-412.jpg;12;20G;9101100;24X20G;19,5 X 5,0 X 9,0;0,0009;0,67;CAJA;es
MEJORANA;169;4;cod-169.jpg;12;10G;12119090;6X10G;12,5 X 8,0 X 12,0;0,0012;0,24;CAJA;es
PEREJIL DESHIDRATADO;171;4;cod-171.jpg;12;8G;7129090;6X8G;12,5 X 8,0 X 12,0;0,0012;0,23;CAJA;es
PATATA PAJA EXTRAFINA;408;1;cod-273.jpg;6;120G;20052000;26X120G;42,0 X 26,0 X 26,5;0,0289;3,48;CAJA;es
